<svg id="logo" xmlns="http://www.w3.org/2000/svg" width="33.553" height="24.912" viewBox="0 0 33.553 24.912">
  <path id="Path_4" data-name="Path 4" d="M1679.673-101.447c-6.473,0-11.721-5.577-11.721-12.456s5.248-12.456,11.721-12.456,11.721,5.577,11.721,12.456S1686.146-101.447,1679.673-101.447Zm20.9-5.719a24.54,24.54,0,0,0,.937-6.737,24.537,24.537,0,0,0-.937-6.738l-32.617,6.738Z" transform="translate(-1667.952 126.359)" fill="#fff"/>
</svg>
